{
    "dir": "ltr",
    "lang": "en",
    "name": "DOCBatch Beta",
    "short_name": "DOCBatch Beta",
    "scope": "/",
    "display": "standalone",
    "start_url": "https://beta.docbatch.app",
    "background_color": "transparent",
    "theme_color": "transparent",
    "description": "",
    "orientation": "any",
    "related_applications": [],
    "prefer_related_applications": false,
    "icons": [
        {
            "src": "https://docbatch.app/static/icons/doc-196.png",
            "sizes": "196x196",
            "type": "image/png"
        }
    ]
}
